{
  "ru": ["А", "Б", "В", "Г", "Д", "Е", "Ё", "Ж", "З", "И", "Й", "К", "Л", "М", "Н", "О", "П", "Р", "С", "Т", "У", "Ф", "Х", "Ц", "Ч", "Ш", "Щ", "Ъ", "Ы", "Ь", "Э", "Ю", "Я"],
  "en": ["A", "B", "C", "D", "E", "F", "G", "H", "I", "J", "K", "L", "M", "N", "O", "P", "Q", "R", "S", "T", "U", "V", "W", "X", "Y", "Z"]
}
