<svg xmlns="http://www.w3.org/2000/svg" xmlns:xlink="http://www.w3.org/1999/xlink" preserveAspectRatio="xMidYMid" width="17" height="17" viewBox="0 0 17 17">
  <defs>
    <style>
      .cls-1 {
        fill: #262626;
        fill-rule: evenodd;
      }
    </style>
  </defs>
  <path d="M11.075,0.120 C10.903,-0.033 10.626,-0.033 10.455,0.120 C10.283,0.272 10.283,0.519 10.455,0.671 L15.309,4.989 L10.290,4.989 C4.104,4.989 0.556,8.144 0.556,13.646 L0.556,16.497 C0.556,16.713 0.752,16.887 0.994,16.887 C1.237,16.887 1.433,16.713 1.433,16.497 L1.433,13.646 C1.433,8.566 4.578,5.768 10.290,5.768 L15.309,5.768 L10.455,10.086 C10.283,10.238 10.283,10.485 10.455,10.637 C10.540,10.713 10.652,10.751 10.765,10.751 C10.877,10.751 10.989,10.713 11.075,10.637 L16.987,5.379 L11.075,0.120 Z" class="cls-1"/>
</svg>
